<?xml version="1.0" encoding="UTF-8"?>
<svg width="100" height="100" xmlns="http://www.w3.org/2000/svg" xmlns:svg="http://www.w3.org/2000/svg">
 <g>
  <title>Layer 1</title>
  <circle transform="rotate(6.73399e-07, 31.1049, 30.916)" id="svg_1" r="50" cy="50" cx="49.999999" stroke-width="0" stroke="#000000" fill="#FF0000"/>
 </g>
</svg>