<?xml version="1.0" encoding="UTF-8"?>
<svg width="97" height="97" xmlns="http://www.w3.org/2000/svg" xmlns:svg="http://www.w3.org/2000/svg">
 <g>
  <title>Layer 1</title>
  <rect id="svg_1" height="95" width="95" y="1" x="1" stroke-width="2" stroke="#000000" fill="#FF0000"/>
  <rect id="svg_2" height="82.000003" width="81.000004" y="8" x="6" stroke-linecap="null" stroke-linejoin="null" stroke-dasharray="null" stroke-width="2" stroke="#000000" fill="#FF0000"/>
 </g>
</svg>