<?xml version="1.0" encoding="UTF-8"?>
<svg width="100" height="100" xmlns="http://www.w3.org/2000/svg" xmlns:svg="http://www.w3.org/2000/svg">
 <g>
  <title>Layer 1</title>
  <path id="svg_1" d="m-0.000271,38.075241l49.755894,-38.074757l49.755653,38.074757l-19.0047,61.606644l-61.501194,0l-19.005654,-61.606644z" stroke-width="0" stroke="#000000" fill="#FF0000"/>
 </g>
</svg>