<?xml version="1.0" encoding="UTF-8"?>
<svg width="99" height="101" xmlns="http://www.w3.org/2000/svg" xmlns:svg="http://www.w3.org/2000/svg">
 <g>
  <title>Layer 1</title>
  <path id="svg_1" d="m0.000313,100.500099l49.500019,-100.500094l49.499897,100.500094l-98.999916,0z" stroke-width="0" stroke="#000000" fill="#FF0000"/>
 </g>
</svg>